{
    "current_page": 1,
    "data": [
        {
            "id": 1207240,
            "type": 2,
            "wallet_id": 1267,
            "user_id": 637,
            "status": 1,
            "opening_balance": "400.00294500",
            "amount": "0.10170000",
            "closing_balance": "400.10464500",
            "remark": "##{team_bonus}## [13303086055 | Agency Manager]",
            "trxtype": 4,
            "order_id": "0",
            "created_at": "2022-08-18T07:38:15.000000Z",
            "updated_at": "2022-08-18T07:38:15.000000Z"
        },
        {
            "id": 1207226,
            "type": 2,
            "wallet_id": 1267,
            "user_id": 637,
            "status": 1,
            "opening_balance": "399.79954500",
            "amount": "0.20340000",
            "closing_balance": "400.00294500",
            "remark": "##{team_bonus}## [17559561139 | Agency Manager]",
            "trxtype": 4,
            "order_id": "0",
            "created_at": "2022-08-18T07:38:14.000000Z",
            "updated_at": "2022-08-18T07:38:14.000000Z"
        },
        {
            "id": 1207218,
            "type": 2,
            "wallet_id": 1267,
            "user_id": 637,
            "status": 1,
            "opening_balance": "399.66394500",
            "amount": "0.13560000",
            "closing_balance": "399.79954500",
            "remark": "##{team_bonus}## [15232842070 | Agency Manager]",
            "trxtype": 4,
            "order_id": "0",
            "created_at": "2022-08-18T07:38:13.000000Z",
            "updated_at": "2022-08-18T07:38:13.000000Z"
        },
        {
            "id": 1207178,
            "type": 2,
            "wallet_id": 1267,
            "user_id": 637,
            "status": 1,
            "opening_balance": "399.07408500",
            "amount": "0.58986000",
            "closing_balance": "399.66394500",
            "remark": "##{team_bonus}## [13784007467 | Agency Manager]",
            "trxtype": 4,
            "order_id": "0",
            "created_at": "2022-08-18T07:38:11.000000Z",
            "updated_at": "2022-08-18T07:38:11.000000Z"
        },
        {
            "id": 1207170,
            "type": 2,
            "wallet_id": 1267,
            "user_id": 637,
            "status": 1,
            "opening_balance": "398.73508500",
            "amount": "0.33900000",
            "closing_balance": "399.07408500",
            "remark": "##{team_bonus}## [18333989429 | Agency Manager]",
            "trxtype": 4,
            "order_id": "0",
            "created_at": "2022-08-18T07:38:11.000000Z",
            "updated_at": "2022-08-18T07:38:11.000000Z"
        },
        {
            "id": 1207155,
            "type": 2,
            "wallet_id": 1267,
            "user_id": 637,
            "status": 1,
            "opening_balance": "397.76554500",
            "amount": "0.96954000",
            "closing_balance": "398.73508500",
            "remark": "##{team_bonus}## [18003204838 | Agency Manager]",
            "trxtype": 4,
            "order_id": "0",
            "created_at": "2022-08-18T07:38:10.000000Z",
            "updated_at": "2022-08-18T07:38:10.000000Z"
        },
        {
            "id": 1207115,
            "type": 2,
            "wallet_id": 1267,
            "user_id": 637,
            "status": 1,
            "opening_balance": "397.66384500",
            "amount": "0.10170000",
            "closing_balance": "397.76554500",
            "remark": "##{team_bonus}## [18832015787 | Agency Manager]",
            "trxtype": 4,
            "order_id": "0",
            "created_at": "2022-08-18T07:38:06.000000Z",
            "updated_at": "2022-08-18T07:38:06.000000Z"
        },
        {
            "id": 1207099,
            "type": 2,
            "wallet_id": 1267,
            "user_id": 637,
            "status": 1,
            "opening_balance": "397.32484500",
            "amount": "0.33900000",
            "closing_balance": "397.66384500",
            "remark": "##{team_bonus}## [15832088398 | Agency Manager]",
            "trxtype": 4,
            "order_id": "0",
            "created_at": "2022-08-18T07:38:05.000000Z",
            "updated_at": "2022-08-18T07:38:05.000000Z"
        },
        {
            "id": 1207075,
            "type": 2,
            "wallet_id": 1267,
            "user_id": 637,
            "status": 1,
            "opening_balance": "397.22314500",
            "amount": "0.10170000",
            "closing_balance": "397.32484500",
            "remark": "##{team_bonus}## [15831097278 | Agency Manager]",
            "trxtype": 4,
            "order_id": "0",
            "created_at": "2022-08-18T07:38:03.000000Z",
            "updated_at": "2022-08-18T07:38:03.000000Z"
        },
        {
            "id": 1207010,
            "type": 2,
            "wallet_id": 1267,
            "user_id": 637,
            "status": 1,
            "opening_balance": "397.12144500",
            "amount": "0.10170000",
            "closing_balance": "397.22314500",
            "remark": "##{team_bonus}## [15226803577 | Agency Manager]",
            "trxtype": 4,
            "order_id": "0",
            "created_at": "2022-08-18T07:38:01.000000Z",
            "updated_at": "2022-08-18T07:38:01.000000Z"
        }
    ],
    "first_page_url": "https:\/\/api.abs.agency\/api\/wallet\/statement?page=1",
    "from": 1,
    "last_page": 3723,
    "last_page_url": "https:\/\/api.abs.agency\/api\/wallet\/statement?page=3723",
    "next_page_url": "https:\/\/api.abs.agency\/api\/wallet\/statement?page=2",
    "path": "https:\/\/api.abs.agency\/api\/wallet\/statement",
    "per_page": "10",
    "prev_page_url": null,
    "to": 10,
    "total": 37223
}